%YAML 1.1
%TAG !u! tag:unity3d.com,2011:
--- !u!221 &22100000
AnimatorOverrideController:
  m_ObjectHideFlags: 0
  m_PrefabParentObject: {fileID: 0}
  m_PrefabInternal: {fileID: 0}
  m_Name: Enemy Strong
  m_Controller: {fileID: 9100000, guid: e2226280ca9c8004f83484aec1c26464, type: 2}
  m_Clips:
  - m_OriginalClip: {fileID: 7400000, guid: 47c66b455da52524cb738621a953d64f, type: 2}
    m_OverrideClip: {fileID: 7400000, guid: 360e8a04d1989b54b8c64b52fa23f4c9, type: 2}
  - m_OriginalClip: {fileID: 7400000, guid: cdfa60a4b2ab4e741a3da84df602f4b1, type: 2}
    m_OverrideClip: {fileID: 7400000, guid: cdfa60a4b2ab4e741a3da84df602f4b1, type: 2}
